%YAML 1.1
%TAG !u! tag:unity3d.com,2011:
--- !u!74 &7400000
AnimationClip:
  m_ObjectHideFlags: 0
  m_PrefabParentObject: {fileID: 0}
  m_PrefabInternal: {fileID: 0}
  m_Name: slide
  serializedVersion: 6
  m_Legacy: 0
  m_Compressed: 0
  m_UseHighQualityCurve: 1
  m_RotationCurves: []
  m_CompressedRotationCurves: []
  m_EulerCurves: []
  m_PositionCurves: []
  m_ScaleCurves: []
  m_FloatCurves: []
  m_PPtrCurves:
  - curve:
    - time: 0
      value: {fileID: 21300000, guid: 5f54bdab57bebbe49bf0bc0b40531fee, type: 3}
    - time: 0.083333336
      value: {fileID: 21300000, guid: 1464ff319c5f30e4794a2d6dc79fd011, type: 3}
    - time: 0.16666667
      value: {fileID: 21300000, guid: 2adf5cb3c04987846bbeb06706d67c76, type: 3}
    - time: 0.25
      value: {fileID: 21300000, guid: ba448c74157e0c448bcb2a751abf8716, type: 3}
    - time: 0.33333334
      value: {fileID: 21300000, guid: ef52f37bd465de04fb4bf6d2924fe9c8, type: 3}
    - time: 0.41666666
      value: {fileID: 21300000, guid: 4a40a96a87f690746b7a521ad94011cc, type: 3}
    - time: 0.5
      value: {fileID: 21300000, guid: 897b176f585212d4ab92eed060f50c64, type: 3}
    - time: 0.5833333
      value: {fileID: 21300000, guid: c4cac968693f8d64db8f814312c4a0ec, type: 3}
    - time: 0.6666667
      value: {fileID: 21300000, guid: 68a7f204c27e7534a9f88a90b4410efa, type: 3}
    - time: 0.75
      value: {fileID: 21300000, guid: ef83fad602f2b744593ef9a65b0135c5, type: 3}
    attribute: m_Sprite
    path: 
    classID: 212
    script: {fileID: 0}
  m_SampleRate: 12
  m_WrapMode: 0
  m_Bounds:
    m_Center: {x: 0, y: 0, z: 0}
    m_Extent: {x: 0, y: 0, z: 0}
  m_ClipBindingConstant:
    genericBindings:
    - serializedVersion: 2
      path: 0
      attribute: 0
      script: {fileID: 0}
      typeID: 212
      customType: 23
      isPPtrCurve: 1
    pptrCurveMapping:
    - {fileID: 21300000, guid: 5f54bdab57bebbe49bf0bc0b40531fee, type: 3}
    - {fileID: 21300000, guid: 1464ff319c5f30e4794a2d6dc79fd011, type: 3}
    - {fileID: 21300000, guid: 2adf5cb3c04987846bbeb06706d67c76, type: 3}
    - {fileID: 21300000, guid: ba448c74157e0c448bcb2a751abf8716, type: 3}
    - {fileID: 21300000, guid: ef52f37bd465de04fb4bf6d2924fe9c8, type: 3}
    - {fileID: 21300000, guid: 4a40a96a87f690746b7a521ad94011cc, type: 3}
    - {fileID: 21300000, guid: 897b176f585212d4ab92eed060f50c64, type: 3}
    - {fileID: 21300000, guid: c4cac968693f8d64db8f814312c4a0ec, type: 3}
    - {fileID: 21300000, guid: 68a7f204c27e7534a9f88a90b4410efa, type: 3}
    - {fileID: 21300000, guid: ef83fad602f2b744593ef9a65b0135c5, type: 3}
  m_AnimationClipSettings:
    serializedVersion: 2
    m_AdditiveReferencePoseClip: {fileID: 0}
    m_AdditiveReferencePoseTime: 0
    m_StartTime: 0
    m_StopTime: 0.8333333
    m_OrientationOffsetY: 0
    m_Level: 0
    m_CycleOffset: 0
    m_HasAdditiveReferencePose: 0
    m_LoopTime: 0
    m_LoopBlend: 0
    m_LoopBlendOrientation: 0
    m_LoopBlendPositionY: 0
    m_LoopBlendPositionXZ: 0
    m_KeepOriginalOrientation: 0
    m_KeepOriginalPositionY: 1
    m_KeepOriginalPositionXZ: 0
    m_HeightFromFeet: 0
    m_Mirror: 0
  m_EditorCurves: []
  m_EulerEditorCurves: []
  m_HasGenericRootTransform: 0
  m_HasMotionFloatCurves: 0
  m_GenerateMotionCurves: 0
  m_Events: []
